Race and Ethnicity Analysis
…
  output <- pivot %>% 
    mutate(total=sum(pivot$n)) %>% 
    mutate(prop=(round(n/total, digits = 3)))
}

Not Hispanic/Latino/Spanish Origin

eth1_race <- count_combination_race_by_ethnicitiy(1, 'ethnicity_1', 'ethnicity_group')

eth1_race

# A tibble: 24 × 10
# Groups:   race_afam, race_aiak, race_asian, race_hapi, race_white,
#   race_noanswer, race_other [24]
   race_afam  race_aiak race_asian race_hapi race_white race_noanswer race_other
   <chr>      <chr>     <chr>      <chr>     <chr>      <chr>         <chr>     
 1 Not Selec… Not Sele… Not Selec… Not Sele… Selected   Not Selected  Not Selec…
 2 Not Selec… Not Sele… Selected   Not Sele… Not Selec… Not Selected  Not Selec…
 3 Selected   Not Sele… Not Selec… Not Sele… Not Selec… Not Selected  Not Selec…
 4 Not Selec… Not Sele… Selected   Not Sele… Selected   Not Selected  Not Selec…
 5 Not Selec… Not Sele… Not Selec… Not Sele… Not Selec… Selected      Not Selec…
 6 Not Selec… Selected  Not Selec… Not Sele… Selected   Not Selected  Not Selec…
 7 Not Selec… Selected  Not Selec… Not Sele… Not Selec… Not Selected  Not Selec…
 8 Not Selec… Not Sele… Not Selec… Selected  Not Selec… Not Selected  Not Selec…
 9 Selected   Not Sele… Not Selec… Not Sele… Selected   Not Selected  Not Selec…
10 Not Selec… Not Sele… Not Selec… Selected  Selected   Not Selected  Not Selec…
# ℹ 14 more rows
# ℹ 3 more variables: n <int>, total <int>, prop <dbl>
…
#check to make sure function works
# adult_23 #5931 people in dataset
# person_id_multiple_23_eth #5946 ethnicities (some people have multiple ethnicities)
# length(unique(adult_23$person_id)) #5931 people in dataset
# length(unique(person_id_multiple_23_race$person_id)) #5923
# length(unique(person_id_multiple_23_eth$person_id)) #5923
# 
# check <- person_id_multiple_23_eth %>% 
#   filter(ethnicity_group!="ethnicity_1") #1145
# length(unique(check$person_id)) #1122

not_eth1_race

# A tibble: 22 × 10
# Groups:   race_afam, race_aiak, race_asian, race_hapi, race_white,
#   race_noanswer, race_other [22]
   race_afam  race_aiak race_asian race_hapi race_white race_noanswer race_other
   <chr>      <chr>     <chr>      <chr>     <chr>      <chr>         <chr>     
 1 Not Selec… Not Sele… Not Selec… Not Sele… Not Selec… Selected      Not Selec…
 2 Not Selec… Not Sele… Not Selec… Not Sele… Selected   Not Selected  Not Selec…
 3 Not Selec… Not Sele… Selected   Not Sele… Not Selec… Not Selected  Not Selec…
 4 Not Selec… Not Sele… Not Selec… Not Sele… Not Selec… Not Selected  Selected  
 5 Selected   Not Sele… Not Selec… Not Sele… Not Selec… Not Selected  Not Selec…
 6 Not Selec… Not Sele… Not Selec… Not Sele… Selected   Not Selected  Selected  
 7 Not Selec… Selected  Not Selec… Not Sele… Selected   Not Selected  Not Selec…
 8 Selected   Selected  Not Selec… Not Sele… Selected   Not Selected  Not Selec…
 9 Not Selec… Not Sele… Selected   Not Sele… Selected   Not Selected  Not Selec…
10 Not Selec… Selected  Not Selec… Not Sele… Not Selec… Not Selected  Not Selec…
# ℹ 12 more rows
# ℹ 3 more variables: n <int>, total <int>, prop <dbl>
…
