EV Charging Analysis
…
# used to verify the total number of vehicles for each hh is the same as in the vehicles table  
test <- vehicle %>% group_by(hh_id) %>% summarise(count = n())

Verifying if multiple people within a hh answered the ‘EV typical charge’ location question

hh_response_count <- person_new %>% 
  group_by(hh_id) %>% 
  summarise(num_responses = n(),
            num_people = n_distinct(person_id))
print(hh_response_count)

# A tibble: 196 × 3
   hh_id    num_responses num_people
   <chr>            <int>      <int>
 1 23001247             2          2
 2 23001322             1          1
 3 23001767             2          1
 4 23002452             2          2
 5 23002471             2          2
 6 23003394             1          1
 7 23005809             6          2
 8 23006730             3          2
 9 23007176             1          1
10 23007848             1          1
# ℹ 186 more rows
…
